Advanced: Submitting and Polling Multiple Batches • pairwiseLLM
…
batch_grid <- dplyr::bind_rows(
  anthropic_grid,
  gemini_grid,
  openai_grid
)

batch_grid
#> # A tibble: 22 × 4
#>    provider  model             thinking      direction
#>    <chr>     <chr>             <chr>         <chr>    
#>  1 anthropic claude-sonnet-4-5 no_thinking   forward  
#>  2 anthropic claude-sonnet-4-5 no_thinking   reverse  
#>  3 anthropic claude-sonnet-4-5 with_thinking forward  
#>  4 anthropic claude-sonnet-4-5 with_thinking reverse  
#>  5 anthropic claude-haiku-4-5  no_thinking   forward  
#>  6 anthropic claude-haiku-4-5  no_thinking   reverse  
#>  7 anthropic claude-haiku-4-5  with_thinking forward  
#>  8 anthropic claude-haiku-4-5  with_thinking reverse  
#>  9 anthropic claude-opus-4-5   no_thinking   forward  
#> 10 anthropic claude-opus-4-5   no_thinking   reverse  
#> # ℹ 12 more rows
…
